…
``` r
wb_data <- bind_rows(wb_data)
wb_data
```

    ## # A tibble: 855 x 6
    ##    country country_code inc_per_capita female_househol~ out_of_school_f~
    ##    <chr>   <chr>                 <dbl>            <dbl>            <dbl>
    ##  1 Angola  AGO                      NA               NA               NA
    ##  2 Angola  AGO                      NA               NA               NA
    ##  3 Angola  AGO                      NA               NA               NA
    ##  4 Angola  AGO                      NA               NA               NA
    ##  5 Angola  AGO                      NA               NA               NA
    ##  6 Angola  AGO                      NA               NA               NA
    ##  7 Angola  AGO                      NA               NA               NA
    ##  8 Angola  AGO                      NA               NA               NA
    ##  9 Angola  AGO                      NA               NA               NA
    ## 10 Angola  AGO                      NA               NA               NA
    ## # ... with 845 more rows, and 1 more variable: out_of_school_male <dbl>
…
